[
    {
        "name": "RAW",
        "include": {
            "datatype": [
                "RAW"
            ],
            "project": [
                "data%"
            ]
        },
        "age": "1200",
        "extension": "12"
    },
    {
        "name": "NTUP_PILEUP and NTUP_COMMON",
        "include": {
            "datatype": [
                "NTUP_PILEUP",
                "NTUP_COMMON"
            ],
            "project": [
                "data%"
            ]
        },
        "age": "1200",
        "extension": "12"
    },
    {
        "name": "Express stream ESD, NTUP_TRIG",
        "include": {
            "datatype": [
                "ESD",
                "NTUP_TRIG"
            ],
            "project": [
                "data%"
            ],
            "tags": [
                "%x%"
            ]
        },
        "age": "4",
        "extension": "0"
    },
    {
        "name": "Express stream AOD,NTUP_BKG",
        "include": {
            "datatype": [
                "AOD",
                "NTUP_BKG"
            ],
            "project": [
                "data%"
            ],
            "tags": [
                "%x%"
            ]
        },
        "age": "60",
        "extension": "0"
    },
    {
        "name": "ESD_ph_str",
        "include": {
            "stream": [
                "physics_Bphysics%",
                "physics_egamma",
                "physics_Main",
                "physics_JetTauEtmiss",
                "physics_Muons",
                "physics_HadDelayed",
                "physics_CosmicMuons",
                "physics_Late",
                "physics_L1Calo",
                "physics_EnhancedBias",
                "debug%"
            ],
            "datatype": [
                "ESD"
            ],
            "project": [
                "data%"
            ]
        },
        "exclude": {
            "project": [
                "data10_hi",
                "data11_hi",
                "data11_hip",
                "data12_hip",
                "data13_hip",
                "data11_2p76TeV",
                "data13_2p76TeV"
            ]
        },
        "age": "3",
        "extension": "12"
    },
    {
        "name": "AOD_ph_str",
        "include": {
            "stream": [
                "physics_Bphysics%",
                "physics_egamma",
                "physics_Main",
                "physics_JetTauEtmiss",
                "physics_Muons",
                "physics_HadDelayed",
                "physics_CosmicMuons",
                "physics_Late",
                "physics_L1Calo",
                "physics_EnhancedBias",
                "debug%"
            ],
            "datatype": [
                "AOD"
            ],
            "project": [
                "data%"
            ]
        },
        "exclude": {
            "project": [
                "data10_hi",
                "data11_hi",
                "data11_hip",
                "data12_hip",
                "data13_hip",
                "data11_2p76TeV",
                "data13_2p76TeV"
            ]
        },
        "age": "24",
        "extension": "12"
    },
    {
        "name": "ESD_AOD_hi",
        "include": {
            "datatype": [
                "ESD",
                "AOD",
                "NTUP_HI"
            ],
            "project": [
                "data10_hi",
                "data11_hi",
                "data11_hip",
                "data12_hip",
                "data13_hip",
                "data11_2p76TeV",
                "data13_2p76TeV"
            ]
        },
        "age": "24",
        "extension": "12"
    },
    {
        "name": "ESDAOD_sm_str1",
        "include": {
            "stream": [
                "physics_ZeroBias%",
                "physics_MinBias",
                "physics_CosmicCalo",
                "express_express",
                "physics_Background",
                "physics_JetCalib",
                "physics_IDCosmic",
                "physics_CosmicMuons",
                "physics_Standby",
                "calibration_%"
            ],
            "datatype": [
                "ESD",
                "AOD"
            ],
            "project": [
                "data%"
            ]
        },
        "exclude": {
            "project": [
                "data10_hi",
                "data11_hi",
                "data11_hip",
                "data12_hip",
                "data13_hip",
                "data11_2p76TeV",
                "data13_2p76TeV"
            ]
        },
        "age": "24",
        "extension": "12"
    },
    {
        "name": "ESDAOD_sm_str2",
        "include": {
            "stream": [
                "calibration_PixelBeam",
                "calibration_VdM"
            ],
            "datatype": [
                "ESD",
                "AOD"
            ],
            "project": [
                "data%"
            ]
        },
        "exclude": {
            "project": [
                "data10_hi",
                "data11_hi",
                "data11_hip",
                "data12_hip",
                "data13_hip",
                "data11_2p76TeV",
                "data13_2p76TeV"
            ]
        },
        "age": "36",
        "extension": "12"
    },
    {
        "name": "TAG",
        "include": {
            "datatype": [
                "TAG"
            ],
            "project": [
                "data%"
            ]
        },
        "age": "120",
        "extension": "12"
    },
    {
        "name": "HIST",
        "include": {
            "datatype": [
                "HIST"
            ],
            "project": [
                "data%"
            ]
        },
        "age": "120",
        "extension": "12"
    },
    {
        "name": "log",
        "include": {
            "datatype": [
                "log"
            ],
            "project": [
                "data%"
            ]
        },
        "age": "12",
        "extension": "12"
    },
    {
        "name": "DESD",
        "include": {
            "datatype": [
                "DESD%"
            ],
            "project": [
                "data%"
            ]
        },
        "age": "24",
        "extension": "12"
    },
    {
        "name": "DAOD_T0",
        "include": {
            "datatype": [
                "DAOD_RPVLL%",
                "DAOD_BCID1%",
                "DAOD_BCID2%",
                "DAOD_BCID3%",
                "DAOD_EGZ%",
                "DAOD_IDNCB%",
                "DAOD_IDPIXLUMI%",
                "DAOD_IDTRKLUMI%",
                "DAOD_IDTRKVALID%",
                "DAOD_L1CALO1%",
                "DAOD_L1CALO2%",
                "DAOD_SCTVALID%",
                "DAOD_TAUMUH%",
                "DAOD_ZMUMU%",
                "DAOD_IDTIDE%",
                "DAOD_L1CALO3%",
                "DAOD_L1CALO4%",
                "DAOD_L1CALO5%"
            ],
            "project": [
                "data%"
            ]
        },
        "age": "24",
        "extension": "12"
    },
    {
        "name": "DAOD",
        "include": {
            "datatype": [
                "DAOD%"
            ],
            "project": [
                "data%"
            ]
        },
        "age": "6",
        "extension": "6"
    },
    {
        "name": "DRAW",
        "include": {
            "datatype": [
                "DRAW%"
            ],
            "project": [
                "data%"
            ]
        },
        "age": "36",
        "extension": "12"
    },
    {
        "name": "NTUP1",
        "include": {
            "datatype": [
                "NTUP_LARNOISE",
                "NTUP_HECNOISE",
                "NTUP_SCT",
                "NTUP_TRIG",
                "NTUP_L1CALO",
                "NTUP_L1TGC",
                "NTUP_TRIGBJET",
                "NTUP_TRIGMU"
            ],
            "project": [
                "data%"
            ]
        },
        "age": "12",
        "extension": "12"
    },
    {
        "name": "NTUP2",
        "include": {
            "datatype": [
                "NTUP_IDVTXLUMI",
                "NTUP_BKG",
                "NTUP_TRKVALID"
            ],
            "project": [
                "data%"
            ]
        },
        "age": "36",
        "extension": "12"
    }
]
